[
  {
    "icono": "/front/src/images/icons/about/1.png",
    "title": "Nuestra Meta",
    "content": "Crear una nueva cultura de trabajo con base a competencias de las funciones/puestos con actitudes que sean de calidad que se reflejen al nivel:",
    "content2": "Interno de la empresa.",
    "content3": "Externo de la empresa."
  },
  {
    "icono": "/front/src/images/icons/about/7.png",
    "title": "Plus",
    "content": "Ofertas de capacitación específicas e innovadoras con base a:",
    "content2": "Análisis y estudios del contexto global que inciden en el Sector Petrolero.",
    "content3": "Modelo de competencias."
  },
  {
    "icono": "/front/src/images/icons/about/2.png",
    "title": "Nuestros programas de capacitación están dirigidos a:",
    "content2": "Profesionales, Técnicos y Operadores que laboren en las áreas afines al sector petrolero",
    "content3": "Estudiantes de carreras afines"
  }
]